{
  "name": "FSPassword",
  "version": "1.3",
  "summary": "FSPassword is a tool for show logs when app run",
  "description": "This is a very small software library, offering a few methods to help with programming.",
  "homepage": "https://github.com/fuchina/FSPassword",
  "license": {
    "type": "MIT",
    "file": "LICENSE"
  },
  "authors": {
    "fudon": "1245102331@qq.com"
  },
  "source": {
    "git": "https://github.com/fuchina/FSPassword.git",
    "tag": "1.3"
  },
  "source_files": "FSPassword/classes/*.{h}",
  "ios": {
    "vendored_libraries": "FSPassword/libs/libFSPassword.a"
  },
  "platforms": {
    "ios": "9.0"
  },
  "dependencies": {
    "FSJZBus": [

    ]
  }
}
