{
  "name": "WZBanner",
  "version": "0.1.0",
  "summary": "A short description of WZBanner.",
  "description": "TODO: Add long description of the pod here.",
  "homepage": "https://github.com/suibiankeyinan/WZBanner",
  "license": {
    "type": "MIT",
    "file": "LICENSE"
  },
  "authors": {
    "sunnyYellow": "593723600@qq.com"
  },
  "source": {
    "git": "https://github.com/suibiankeyinan/WZBanner.git",
    "tag": "0.1.0"
  },
  "platforms": {
    "ios": "8.0"
  },
  "source_files": "WZBanner/Classes/**/*",
  "prefix_header_file": "WZbanner/Classes/BannerTool/WZbannerHeader.pch",
  "resource_bundles": {
    "WZBanner": [
      "WZbanner/Assets/*.png",
      "WZbanner/Assets/*.jpg"
    ]
  },
  "dependencies": {
    "SDWebImage": [
      "3.7.6"
    ]
  }
}
