{
  "name": "DollarGestureRecognizer",
  "version": "1.0.0",
  "summary": "Implements the dollar recognizers in swift and expose them as a set of custom UIGestureRecognizer subclasses.",
  "homepage": "https://github.com/DanielCardonaRojas/DollarGestureRecognizer",
  "license": {
    "type": "MIT",
    "file": "LICENSE"
  },
  "authors": {
    "Your Name": "d.cardona.rojas@gmail.com"
  },
  "swift_versions": "5.0",
  "platforms": {
    "ios": "9.1"
  },
  "requires_arc": true,
  "source": {
    "git": "https://github.com/DanielCardonaRojas/DollarGestureRecognizer.git",
    "tag": "v1.0.0"
  },
  "source_files": "DollarGestureRecognizer/**/*.{h,swift}",
  "swift_version": "5.0"
}
