{
  "name": "DryAdMob",
  "version": "0.0.1",
  "summary": "DryAdMob",
  "homepage": "https://github.com/duanruiying/DryAdMob",
  "license": {
    "type": "MIT",
    "file": "LICENSE"
  },
  "authors": {
    "duanruiying": "2237840768@qq.com"
  },
  "source": {
    "git": "https://github.com/duanruiying/DryAdMob.git",
    "tag": "0.0.1"
  },
  "description": "TODO: iOS WKWebView网页加载",
  "swift_versions": "5.0",
  "platforms": {
    "ios": "10.0"
  },
  "requires_arc": true,
  "user_target_xcconfig": {
    "OTHER_LDFLAGS": [
      "-w"
    ]
  },
  "static_framework": true,
  "pod_target_xcconfig": {
    "OTHER_LDFLAGS": [
      "-w"
    ]
  },
  "source_files": "DryAdMob/Classes/Code/**/*",
  "frameworks": [
    "UIKit",
    "Foundation",
    "WebKit"
  ],
  "dependencies": {
    "SnapKit": [

    ],
    "Google-Mobile-Ads-SDK": [

    ]
  },
  "swift_version": "5.0"
}
