{
  "name": "Flyshot",
  "version": "0.0.2",
  "summary": "Flyshot description should be here",
  "description": "Description should be there",
  "homepage": "http://EXAMPLE/Flyshot",
  "license": "MIT",
  "authors": {
    "artsiom.likhatch@altoros.com": ""
  },
  "platforms": {
    "ios": "10.0"
  },
  "source": {
    "git": "https://bitbucket.org/flyshot/ios-sdk.git",
    "tag": "0.0.2"
  },
  "pod_target_xcconfig": {
    "DEFINES_MODULE": "YES"
  },
  "requires_arc": true,
  "swift_versions": "5.0",
  "vendored_frameworks": "Flyshot/Flyshot.framework",
  "dependencies": {
    "Alamofire": [
      "~> 4.8.2"
    ],
    "CocoaImageHashing": [
      "~> 1.7.0"
    ],
    "OpenCV2": [

    ]
  },
  "swift_version": "5.0"
}
